Applying R to Big Data Processing
…
.panel[.panel-name[dbplyr]

```r
library(data.table)
library(dtplyr)
iris_lazy_dt <- lazy_dt(iris)
results_lazy_dt <- iris_lazy_dt %>% 
  filter(Sepal.Length > 5.0) %>%
  select(Species, Sepal.Length)
results_lazy_dt
```

```
## Source: local data table [118 x 2]
## Call:   `_DT1`[Sepal.Length > 5, .(Species, Sepal.Length)]
## 
##   Species Sepal.Length
##   <fct>          <dbl>
## 1 setosa           5.1
## 2 setosa           5.4
## 3 setosa           5.4
## 4 setosa           5.8
## 5 setosa           5.7
## 6 setosa           5.4
## # ℹ 112 more rows
## 
## # Use as.data.table()/as.data.frame()/as_tibble() to access results
```
…
```
## `_DT1`[Sepal.Length > 5, .(Species, Sepal.Length)]
```
]

.panel[.panel-name[collect]

```r
results <- results_lazy_dt %>% collect()
results
```

```
## # A tibble: 118 × 2
##    Species Sepal.Length
##    <fct>          <dbl>
##  1 setosa           5.1
##  2 setosa           5.4
##  3 setosa           5.4
##  4 setosa           5.8
##  5 setosa           5.7
##  6 setosa           5.4
##  7 setosa           5.1
##  8 setosa           5.7
##  9 setosa           5.1
## 10 setosa           5.4
## # ℹ 108 more rows
```
…
.panel[.panel-name[collect]

```r
results <- results_db %>% collect()
results
```

```
## # A tibble: 118 × 2
##    Species Sepal.Length
##    <chr>          <dbl>
##  1 setosa           5.1
##  2 setosa           5.4
##  3 setosa           5.4
##  4 setosa           5.8
##  5 setosa           5.7
##  6 setosa           5.4
##  7 setosa           5.1
##  8 setosa           5.7
##  9 setosa           5.1
## 10 setosa           5.4
## # ℹ 108 more rows
```
…
.panel[.panel-name[collect]

```r
results <- results_spark %>% collect()
results
```

```
## # A tibble: 118 × 2
##    Species Sepal_Length
##    <chr>          <dbl>
##  1 setosa           5.1
##  2 setosa           5.4
##  3 setosa           5.4
##  4 setosa           5.8
##  5 setosa           5.7
##  6 setosa           5.4
##  7 setosa           5.1
##  8 setosa           5.7
##  9 setosa           5.1
## 10 setosa           5.4
## # ℹ 108 more rows
```
…
.panel[.panel-name[collect]

```r
results <- results_arrow %>% collect()
results
```
```
# A tibble: 118 × 2
   Species Sepal.Length
   <chr>          <dbl>
 1 setosa           5.1
 2 setosa           5.4
 3 setosa           5.4
 4 setosa           5.8
 5 setosa           5.7
 6 setosa           5.4
 7 setosa           5.1
 8 setosa           5.7
 9 setosa           5.1
10 setosa           5.4
# ℹ 108 more rows
# ℹ Use `print(n = ...)` to see more rows
```
…
.panel[.panel-name[lazy_dt]

```r
ADLB_lazy_dt <- lazy_dt(ADLB)
ADLB_lazy_dt
```

```
## Source: local data table [10,000,000 x 11]
## Call:   `_DT2`
## 
##   STUDYID  USUBJID  SAFFL EFFFL COHORT TRT01A PARAMCD  AVAL AVISIT AVISITN ABLFL
##   <chr>    <chr>    <chr> <chr> <chr>  <chr>  <chr>   <dbl> <chr>    <dbl> <chr>
## 1 StudyXYZ SUBJ000… N     Y     B      DrugX  AST     178.  Week 8       4 N    
## 2 StudyXYZ SUBJ000… Y     Y     C      DrugY  LDH     108.  Week 4       3 N    
## 3 StudyXYZ SUBJ000… Y     Y     A      DrugY  BILI    108.  Week 8       4 N    
## 4 StudyXYZ SUBJ000… N     N     B      DrugY  ALP      62.1 Week 1       2 N    
## 5 StudyXYZ SUBJ000… Y     N     C      DrugY  AST     128.  Week 8       4 Y    
## 6 StudyXYZ SUBJ000… Y     N     C      Place… ALP     229.  Week 4       3 N    
## # ℹ 9,999,994 more rows
## 
## # Use as.data.table()/as.data.frame()/as_tibble() to access results
```
…
